[
  {
    "pk": 1,
    "model": "catalogue.category",
    "fields": {
      "description": "<p>описание </p>",
      "numchild": 10,
      "slug": "hardware",
      "depth": 1,
      "path": "0001",
      "image": "",
      "name": "Комплектующие"
    }
  },
  {
    "pk": 2,
    "model": "catalogue.category",
    "fields": {
      "description": "<p>описание процессора</p>",
      "numchild": 0,
      "slug": "hardware/cpu",
      "depth": 2,
      "path": "00010001",
      "image": "",
      "name": "Процессор"
    }
  },
  {
    "pk": 3,
    "model": "catalogue.category",
    "fields": {
      "description": "<p>описание кулера</p>",
      "numchild": 0,
      "slug": "hardware/cooler",
      "depth": 2,
      "path": "00010002",
      "image": "",
      "name": "Кулер"
    }
  },
  {
    "pk": 4,
    "model": "catalogue.category",
    "fields": {
      "description": "<p>описание материнской платы</p>",
      "numchild": 0,
      "slug": "hardware/motherboard",
      "depth": 2,
      "path": "00010003",
      "image": "",
      "name": "Материнская плата"
    }
  },
  {
    "pk": 5,
    "model": "catalogue.category",
    "fields": {
      "description": "<p>описание ОЗУ</p>",
      "numchild": 0,
      "slug": "hardware/ram",
      "depth": 2,
      "path": "00010004",
      "image": "",
      "name": "ОЗУ"
    }
  },
  {
    "pk": 6,
    "model": "catalogue.category",
    "fields": {
      "description": "<p>описание видеокарты</p>",
      "numchild": 0,
      "slug": "hardware/videocard",
      "depth": 2,
      "path": "00010005",
      "image": "",
      "name": "Видеокарта"
    }
  },
  {
    "pk": 7,
    "model": "catalogue.category",
    "fields": {
      "description": "<p>описание HDD диска</p>",
      "numchild": 0,
      "slug": "hardware/hdd",
      "depth": 2,
      "path": "00010006",
      "image": "",
      "name": "HDD диск"
    }
  },
  {
    "pk": 8,
    "model": "catalogue.category",
    "fields": {
      "description": "<p>описание SSD диска</p>",
      "numchild": 0,
      "slug": "hardware/ssd",
      "depth": 2,
      "path": "00010007",
      "image": "",
      "name": "SSD диск"
    }
  },
  {
    "pk": 9,
    "model": "catalogue.category",
    "fields": {
      "description": "<p>описание DVD диска</p>",
      "numchild": 0,
      "slug": "hardware/dvd",
      "depth": 2,
      "path": "00010008",
      "image": "",
      "name": "DVD диск"
    }
  },
  {
    "pk": 10,
    "model": "catalogue.category",
    "fields": {
      "description": "<p>описание корпуса</p>",
      "numchild": 0,
      "slug": "hardware/case",
      "depth": 2,
      "path": "00010009",
      "image": "",
      "name": "Корпус"
    }
  },
  {
    "pk": 11,
    "model": "catalogue.category",
    "fields": {
      "description": "<p>описание блока питания</p>",
      "numchild": 0,
      "slug": "hardware/psu",
      "depth": 2,
      "path": "0001000A",
      "image": "",
      "name": "Блок питания"
    }
  }
]