[
  {
    "pk": 1,
    "model": "catalogue.productclass",
    "fields": {
      "track_stock": true,
      "options": [],
      "requires_shipping": true,
      "name": "cpu_type",
      "slug": "cpu_type"
    }
  },
  {
    "pk": 2,
    "model": "catalogue.productclass",
    "fields": {
      "track_stock": true,
      "options": [],
      "requires_shipping": true,
      "name": "cooler_type",
      "slug": "cooler_type"
    }
  },
  {
    "pk": 3,
    "model": "catalogue.productclass",
    "fields": {
      "track_stock": true,
      "options": [],
      "requires_shipping": true,
      "name": "motherboard_type",
      "slug": "motherboard_type"
    }
  },
  {
    "pk": 4,
    "model": "catalogue.productclass",
    "fields": {
      "track_stock": true,
      "options": [],
      "requires_shipping": true,
      "name": "ram_type",
      "slug": "ram_type"
    }
  },
  {
    "pk": 5,
    "model": "catalogue.productclass",
    "fields": {
      "track_stock": true,
      "options": [],
      "requires_shipping": true,
      "name": "videocard_type",
      "slug": "videocard_type"
    }
  },
  {
    "pk": 6,
    "model": "catalogue.productclass",
    "fields": {
      "track_stock": true,
      "options": [],
      "requires_shipping": true,
      "name": "hdd_type",
      "slug": "hdd_type"
    }
  },
  {
    "pk": 7,
    "model": "catalogue.productclass",
    "fields": {
      "track_stock": true,
      "options": [],
      "requires_shipping": true,
      "name": "ssd_type",
      "slug": "ssd_type"
    }
  },
  {
    "pk": 8,
    "model": "catalogue.productclass",
    "fields": {
      "track_stock": true,
      "options": [],
      "requires_shipping": true,
      "name": "odd_type",
      "slug": "odd_type"
    }
  },
  {
    "pk": 9,
    "model": "catalogue.productclass",
    "fields": {
      "track_stock": true,
      "options": [],
      "requires_shipping": true,
      "name": "case_type",
      "slug": "case_type"
    }
  },
  {
    "pk": 10,
    "model": "catalogue.productclass",
    "fields": {
      "track_stock": true,
      "options": [],
      "requires_shipping": true,
      "name": "psu_type",
      "slug": "psu_type"
    }
  }
]